[gd_scene load_steps=5 format=3 uid="uid://dkdl1bk2jnskp"]

[ext_resource type="Script" path="res://StaticElements/Connector/Connector.gd" id="1_o08mk"]
[ext_resource type="Texture2D" uid="uid://b5ge1oivyyrsd" path="res://StaticElements/Connector/HighlighterRing.png" id="2_etx58"]

[sub_resource type="SphereMesh" id="SphereMesh_lgqwh"]

[sub_resource type="CircleShape2D" id="CircleShape2D_ksnrb"]

[node name="Connector" type="Node2D"]
script = ExtResource("1_o08mk")
highlight_color = Color(1, 1, 1, 1)
selected_color = Color(0, 0, 1, 1)
invalid_setup_color = Color(1, 0, 0, 1)
valid_setup_color = Color(0, 1, 0, 1)

[node name="MeshInstance2D" type="MeshInstance2D" parent="."]
scale = Vector2(20, 20)
mesh = SubResource("SphereMesh_lgqwh")

[node name="StaticBody2D" type="StaticBody2D" parent="."]
input_pickable = true

[node name="CollisionShape2D" type="CollisionShape2D" parent="StaticBody2D"]
shape = SubResource("CircleShape2D_ksnrb")

[node name="HighlighterRing" type="Sprite2D" parent="."]
visible = false
texture_filter = 1
scale = Vector2(0.5, 0.5)
texture = ExtResource("2_etx58")

[connection signal="input_event" from="StaticBody2D" to="." method="_on_input_event"]
[connection signal="mouse_entered" from="StaticBody2D" to="." method="_on_mouse_entered"]
[connection signal="mouse_exited" from="StaticBody2D" to="." method="_on_mouse_exited"]
