[gd_scene load_steps=4 format=3 uid="uid://lsykf6bfqn6p"]

[ext_resource type="Script" path="res://Generic/Warning.gd" id="1_4eoq5"]
[ext_resource type="Texture2D" uid="uid://dhu8uh61rln62" path="res://Art/Generic/Warning.png" id="1_bgd64"]

[sub_resource type="RectangleShape2D" id="RectangleShape2D_4fibr"]
size = Vector2(32, 32)

[node name="Warning" type="Node2D"]
script = ExtResource("1_4eoq5")

[node name="Icon" type="Sprite2D" parent="."]
texture_filter = 1
scale = Vector2(0.5, 0.5)
texture = ExtResource("1_bgd64")

[node name="StaticBody2D" type="StaticBody2D" parent="."]
input_pickable = true

[node name="CollisionShape2D" type="CollisionShape2D" parent="StaticBody2D"]
shape = SubResource("RectangleShape2D_4fibr")

[node name="CanvasLayer" type="CanvasLayer" parent="."]
visible = false

[node name="Label" type="Label" parent="CanvasLayer"]
offset_right = 40.0
offset_bottom = 23.0
theme_override_colors/font_color = Color(1, 1, 1, 1)
theme_override_colors/font_outline_color = Color(0, 0, 0, 1)
theme_override_constants/outline_size = 2
text = "Placeholder warning"
vertical_alignment = 2

[connection signal="mouse_entered" from="StaticBody2D" to="." method="_on_mouse_entered"]
[connection signal="mouse_exited" from="StaticBody2D" to="." method="_on_mouse_exited"]
